Suite/Test/Step Name,Browser,Description,Tag,Start time,End time,Duration,Status
TS - Login-Logout,Chrome 108.0.0.0,,,2022-12-26 15:37:45,2022-12-26 15:38:15,29.855s,PASSED
,,,,,,,
Test Cases/Cucumber/Login/TC.LOG.02.01,Chrome 108.0.0.0,,,2022-12-26 15:37:56,2022-12-26 15:38:08,11.810s,PASSED
"runFeatureFile(""Include/features/Valid/Login-PositiveOnly.feature"")",Chrome 108.0.0.0,,,2022-12-26 15:37:57,2022-12-26 15:38:08,10.904s,PASSED
,,,,,,,
Test Cases/Cucumber/Logout/TS.LOT.09 - Positive Negative,Chrome 108.0.0.0,,,2022-12-26 15:38:08,2022-12-26 15:38:15,7.375s,PASSED
"runFeatureFile(""Include/features/Logout.feature"")",Chrome 108.0.0.0,,,2022-12-26 15:38:09,2022-12-26 15:38:15,6.603s,PASSED
