[
  {
    "line": 1,
    "elements": [
      {
        "line": 3,
        "name": "User melakukan login akun tanpa mengisi input field apapun",
        "description": "",
        "id": "login;user-melakukan-login-akun-tanpa-mengisi-input-field-apapun",
        "type": "scenario",
        "keyword": "Scenario",
        "steps": [
          {
            "result": {
              "duration": 3191018100,
              "status": "passed"
            },
            "line": 4,
            "name": "User klik button Akun",
            "match": {
              "location": "Registration.user_klik_button_Akun()"
            },
            "keyword": "When "
          },
          {
            "result": {
              "duration": 977687800,
              "status": "passed"
            },
            "line": 5,
            "name": "User klik button Masuk",
            "match": {
              "location": "Registration.user_klik_button_Masuk()"
            },
            "keyword": "Then "
          },
          {
            "result": {
              "duration": 3116941700,
              "status": "passed"
            },
            "line": 6,
            "name": "Delay 3 detik",
            "match": {
              "arguments": [
                {
                  "val": "3",
                  "offset": 6
                }
              ],
              "location": "Registration.delay_detik(Integer)"
            },
            "keyword": "Given "
          },
          {
            "result": {
              "duration": 358162900,
              "status": "passed"
            },
            "line": 7,
            "name": "User klik button Masuk Login",
            "match": {
              "location": "Login.user_klik_button_Masuk_Login()"
            },
            "keyword": "Then "
          },
          {
            "result": {
              "duration": 3021106000,
              "status": "passed"
            },
            "line": 8,
            "name": "Delay 3 detik",
            "match": {
              "arguments": [
                {
                  "val": "3",
                  "offset": 6
                }
              ],
              "location": "Registration.delay_detik(Integer)"
            },
            "keyword": "Given "
          },
          {
            "result": {
              "duration": 308989200,
              "status": "passed"
            },
            "line": 9,
            "name": "User mendapatkan alert bahwa field email login tidak boleh kosong",
            "match": {
              "location": "Login.user_mendapatkan_alert_bahwa_field_email_login_tidak_boleh_kosong()"
            },
            "keyword": "Then "
          }
        ]
      },
      {
        "line": 11,
        "name": "User melakukan login akun menggunakan email yang tidak terdaftar/salah",
        "description": "",
        "id": "login;user-melakukan-login-akun-menggunakan-email-yang-tidak-terdaftar/salah",
        "type": "scenario",
        "keyword": "Scenario",
        "steps": [
          {
            "result": {
              "duration": 889159800,
              "status": "passed"
            },
            "line": 12,
            "name": "User mengisi field email login dengan email yang tidak terdaftar",
            "match": {
              "location": "Login.user_mengisi_field_email_login_dengan_email_yang_tidak_terdaftar()"
            },
            "keyword": "When "
          },
          {
            "result": {
              "duration": 1666804400,
              "status": "passed"
            },
            "line": 13,
            "name": "User mengisi field password login dengan valid",
            "match": {
              "location": "Login.user_mengisi_field_password_login_dengan_valid()"
            },
            "keyword": "Then "
          },
          {
            "result": {
              "duration": 636796300,
              "status": "passed"
            },
            "line": 14,
            "name": "User klik button Masuk Login",
            "match": {
              "location": "Login.user_klik_button_Masuk_Login()"
            },
            "keyword": "Then "
          },
          {
            "result": {
              "duration": 3012772700,
              "status": "passed"
            },
            "line": 15,
            "name": "Delay 3 detik",
            "match": {
              "arguments": [
                {
                  "val": "3",
                  "offset": 6
                }
              ],
              "location": "Registration.delay_detik(Integer)"
            },
            "keyword": "Given "
          }
        ]
      },
      {
        "line": 17,
        "name": "User melakukan login akun menggunakan password yang tidak terdaftar/salah",
        "description": "",
        "id": "login;user-melakukan-login-akun-menggunakan-password-yang-tidak-terdaftar/salah",
        "type": "scenario",
        "keyword": "Scenario",
        "steps": [
          {
            "result": {
              "duration": 327399100,
              "status": "passed"
            },
            "line": 18,
            "name": "Mengosongkan field email yang tidak terdaftar",
            "match": {
              "location": "Login.mengosongkan_field_email_yang_tidak_terdaftar()"
            },
            "keyword": "Given "
          },
          {
            "result": {
              "duration": 607417000,
              "status": "passed"
            },
            "line": 19,
            "name": "Mengosongkan field password yang valid",
            "match": {
              "location": "Login.mengosongkan_field_password_yang_valid()"
            },
            "keyword": "Given "
          },
          {
            "result": {
              "duration": 1623163900,
              "status": "passed"
            },
            "line": 20,
            "name": "User mengisi field email login dengan email yang valid",
            "match": {
              "location": "Login.user_mengisi_field_email_login_dengan_email_yang_valid()"
            },
            "keyword": "When "
          },
          {
            "result": {
              "duration": 1618958000,
              "status": "passed"
            },
            "line": 21,
            "name": "User mengisi field password dengan password yang salah",
            "match": {
              "location": "Login.user_mengisi_field_password_dengan_password_yang_salah()"
            },
            "keyword": "Then "
          },
          {
            "result": {
              "duration": 1612301100,
              "status": "passed"
            },
            "line": 22,
            "name": "User klik button Masuk Login",
            "match": {
              "location": "Login.user_klik_button_Masuk_Login()"
            },
            "keyword": "Then "
          },
          {
            "result": {
              "duration": 3015379400,
              "status": "passed"
            },
            "line": 23,
            "name": "Delay 3 detik",
            "match": {
              "arguments": [
                {
                  "val": "3",
                  "offset": 6
                }
              ],
              "location": "Registration.delay_detik(Integer)"
            },
            "keyword": "Given "
          }
        ]
      },
      {
        "line": 25,
        "name": "User melakukan login akun menggunakan email dan password yang valid",
        "description": "",
        "id": "login;user-melakukan-login-akun-menggunakan-email-dan-password-yang-valid",
        "type": "scenario",
        "keyword": "Scenario",
        "steps": [
          {
            "result": {
              "duration": 316242800,
              "status": "passed"
            },
            "line": 26,
            "name": "Mengosongkan field email login sebelumnya",
            "match": {
              "location": "Login.mengosongkan_field_email_login_sebelumnya()"
            },
            "keyword": "Given "
          },
          {
            "result": {
              "duration": 591043300,
              "status": "passed"
            },
            "line": 27,
            "name": "Mengosongkan field password login yang salah",
            "match": {
              "location": "Login.mengosongkan_field_password_login_yang_salah()"
            },
            "keyword": "Given "
          },
          {
            "result": {
              "duration": 1633337000,
              "status": "passed"
            },
            "line": 28,
            "name": "User mengisi field email login dengan email yang valid",
            "match": {
              "location": "Login.user_mengisi_field_email_login_dengan_email_yang_valid()"
            },
            "keyword": "When "
          },
          {
            "result": {
              "duration": 1612759900,
              "status": "passed"
            },
            "line": 29,
            "name": "User mengisi field password login dengan valid",
            "match": {
              "location": "Login.user_mengisi_field_password_login_dengan_valid()"
            },
            "keyword": "Then "
          },
          {
            "result": {
              "duration": 2849428300,
              "status": "passed"
            },
            "line": 30,
            "name": "User klik button Masuk Login",
            "match": {
              "location": "Login.user_klik_button_Masuk_Login()"
            },
            "keyword": "Then "
          },
          {
            "result": {
              "duration": 3012740700,
              "status": "passed"
            },
            "line": 31,
            "name": "Delay 3 detik",
            "match": {
              "arguments": [
                {
                  "val": "3",
                  "offset": 6
                }
              ],
              "location": "Registration.delay_detik(Integer)"
            },
            "keyword": "Given "
          },
          {
            "result": {
              "duration": 326682800,
              "status": "passed"
            },
            "line": 32,
            "name": "User masuk ke halaman Akun Saya",
            "match": {
              "location": "Login.user_masuk_ke_halaman_Akun_Saya()"
            },
            "keyword": "Then "
          }
        ]
      }
    ],
    "name": "Login",
    "description": "",
    "id": "login",
    "keyword": "Feature",
    "uri": "C:/Users/nandi/Katalon Studio/platinum-challenge-kelompok-3-final/Secondhand-App/Include/features/Login.feature",
    "tags": []
  }
]