[
  {
    "line": 1,
    "elements": [
      {
        "BDD_TESTRUN_UUID": "3598e273-62b4-405b-a5e3-246d0b4226ea",
        "line": 3,
        "name": "User melakukan login akun tanpa mengisi input field apapun",
        "description": "",
        "id": "login;user-melakukan-login-akun-tanpa-mengisi-input-field-apapun",
        "type": "scenario",
        "keyword": "Scenario",
        "steps": [
          {
            "result": {
              "duration": 3191018100,
              "status": "passed"
            },
            "line": 4,
            "name": "User klik button Akun",
            "match": {
              "location": "Registration.user_klik_button_Akun()"
            },
            "keyword": "When ",
            "BDD_STEP_UUID": "102b7c35-59a4-4060-9917-61e8686c8279"
          },
          {
            "result": {
              "duration": 977687800,
              "status": "passed"
            },
            "line": 5,
            "name": "User klik button Masuk",
            "match": {
              "location": "Registration.user_klik_button_Masuk()"
            },
            "keyword": "Then ",
            "BDD_STEP_UUID": "a2ade265-b695-4782-aaff-917e68abf615"
          },
          {
            "result": {
              "duration": 3116941700,
              "status": "passed"
            },
            "line": 6,
            "name": "Delay 3 detik",
            "match": {
              "arguments": [
                {
                  "val": "3",
                  "offset": 6
                }
              ],
              "location": "Registration.delay_detik(Integer)"
            },
            "keyword": "Given ",
            "BDD_STEP_UUID": "5a962b70-32cf-43e3-acf6-a1c8c36602c6"
          },
          {
            "result": {
              "duration": 358162900,
              "status": "passed"
            },
            "line": 7,
            "name": "User klik button Masuk Login",
            "match": {
              "location": "Login.user_klik_button_Masuk_Login()"
            },
            "keyword": "Then ",
            "BDD_STEP_UUID": "9ffc05af-eb5f-412d-a8e1-c486d4600d7f"
          },
          {
            "result": {
              "duration": 3021106000,
              "status": "passed"
            },
            "line": 8,
            "name": "Delay 3 detik",
            "match": {
              "arguments": [
                {
                  "val": "3",
                  "offset": 6
                }
              ],
              "location": "Registration.delay_detik(Integer)"
            },
            "keyword": "Given ",
            "BDD_STEP_UUID": "d1e7e880-3323-4469-9243-0303b6a2ab20"
          },
          {
            "result": {
              "duration": 308989200,
              "status": "passed"
            },
            "line": 9,
            "name": "User mendapatkan alert bahwa field email login tidak boleh kosong",
            "match": {
              "location": "Login.user_mendapatkan_alert_bahwa_field_email_login_tidak_boleh_kosong()"
            },
            "keyword": "Then ",
            "BDD_STEP_UUID": "a5c751d7-018c-4de3-89d6-629d468eb505"
          }
        ]
      },
      {
        "BDD_TESTRUN_UUID": "d77537c1-0686-4aef-a4a8-634bbb1a5cb1",
        "line": 11,
        "name": "User melakukan login akun menggunakan email yang tidak terdaftar/salah",
        "description": "",
        "id": "login;user-melakukan-login-akun-menggunakan-email-yang-tidak-terdaftar/salah",
        "type": "scenario",
        "keyword": "Scenario",
        "steps": [
          {
            "result": {
              "duration": 889159800,
              "status": "passed"
            },
            "line": 12,
            "name": "User mengisi field email login dengan email yang tidak terdaftar",
            "match": {
              "location": "Login.user_mengisi_field_email_login_dengan_email_yang_tidak_terdaftar()"
            },
            "keyword": "When ",
            "BDD_STEP_UUID": "c9c273be-27f4-49f5-8522-9a2a6b3a4100"
          },
          {
            "result": {
              "duration": 1666804400,
              "status": "passed"
            },
            "line": 13,
            "name": "User mengisi field password login dengan valid",
            "match": {
              "location": "Login.user_mengisi_field_password_login_dengan_valid()"
            },
            "keyword": "Then ",
            "BDD_STEP_UUID": "dfcdefe0-3ae8-4a08-b3b3-ee4ce887bab8"
          },
          {
            "result": {
              "duration": 636796300,
              "status": "passed"
            },
            "line": 14,
            "name": "User klik button Masuk Login",
            "match": {
              "location": "Login.user_klik_button_Masuk_Login()"
            },
            "keyword": "Then ",
            "BDD_STEP_UUID": "938faa9f-2f2b-483c-b2e2-3e853911452c"
          },
          {
            "result": {
              "duration": 3012772700,
              "status": "passed"
            },
            "line": 15,
            "name": "Delay 3 detik",
            "match": {
              "arguments": [
                {
                  "val": "3",
                  "offset": 6
                }
              ],
              "location": "Registration.delay_detik(Integer)"
            },
            "keyword": "Given ",
            "BDD_STEP_UUID": "c92ec238-561c-47e6-8a37-318bcac58f61"
          }
        ]
      },
      {
        "BDD_TESTRUN_UUID": "b7e0ee27-ed8c-4347-ad3c-3316ded11970",
        "line": 17,
        "name": "User melakukan login akun menggunakan password yang tidak terdaftar/salah",
        "description": "",
        "id": "login;user-melakukan-login-akun-menggunakan-password-yang-tidak-terdaftar/salah",
        "type": "scenario",
        "keyword": "Scenario",
        "steps": [
          {
            "result": {
              "duration": 327399100,
              "status": "passed"
            },
            "line": 18,
            "name": "Mengosongkan field email yang tidak terdaftar",
            "match": {
              "location": "Login.mengosongkan_field_email_yang_tidak_terdaftar()"
            },
            "keyword": "Given ",
            "BDD_STEP_UUID": "e1dada32-d408-45da-9514-d4ffd1f15112"
          },
          {
            "result": {
              "duration": 607417000,
              "status": "passed"
            },
            "line": 19,
            "name": "Mengosongkan field password yang valid",
            "match": {
              "location": "Login.mengosongkan_field_password_yang_valid()"
            },
            "keyword": "Given ",
            "BDD_STEP_UUID": "f99e213d-9206-4388-bee3-56b0b583b561"
          },
          {
            "result": {
              "duration": 1623163900,
              "status": "passed"
            },
            "line": 20,
            "name": "User mengisi field email login dengan email yang valid",
            "match": {
              "location": "Login.user_mengisi_field_email_login_dengan_email_yang_valid()"
            },
            "keyword": "When ",
            "BDD_STEP_UUID": "00c148ee-d77f-4eea-b4fe-24e139440155"
          },
          {
            "result": {
              "duration": 1618958000,
              "status": "passed"
            },
            "line": 21,
            "name": "User mengisi field password dengan password yang salah",
            "match": {
              "location": "Login.user_mengisi_field_password_dengan_password_yang_salah()"
            },
            "keyword": "Then ",
            "BDD_STEP_UUID": "5ec8931b-159b-46ce-9f4b-894bca4dc595"
          },
          {
            "result": {
              "duration": 1612301100,
              "status": "passed"
            },
            "line": 22,
            "name": "User klik button Masuk Login",
            "match": {
              "location": "Login.user_klik_button_Masuk_Login()"
            },
            "keyword": "Then ",
            "BDD_STEP_UUID": "aebdd81c-6f3a-4ac0-9cab-b538bd486996"
          },
          {
            "result": {
              "duration": 3015379400,
              "status": "passed"
            },
            "line": 23,
            "name": "Delay 3 detik",
            "match": {
              "arguments": [
                {
                  "val": "3",
                  "offset": 6
                }
              ],
              "location": "Registration.delay_detik(Integer)"
            },
            "keyword": "Given ",
            "BDD_STEP_UUID": "c11368dc-192f-484d-ab34-dfbb4172fdb8"
          }
        ]
      },
      {
        "BDD_TESTRUN_UUID": "1ded3a8a-cd8d-46a8-9644-661c5d4297c2",
        "line": 25,
        "name": "User melakukan login akun menggunakan email dan password yang valid",
        "description": "",
        "id": "login;user-melakukan-login-akun-menggunakan-email-dan-password-yang-valid",
        "type": "scenario",
        "keyword": "Scenario",
        "steps": [
          {
            "result": {
              "duration": 316242800,
              "status": "passed"
            },
            "line": 26,
            "name": "Mengosongkan field email login sebelumnya",
            "match": {
              "location": "Login.mengosongkan_field_email_login_sebelumnya()"
            },
            "keyword": "Given ",
            "BDD_STEP_UUID": "d98f4440-5e49-4bae-b0b1-34a18b583639"
          },
          {
            "result": {
              "duration": 591043300,
              "status": "passed"
            },
            "line": 27,
            "name": "Mengosongkan field password login yang salah",
            "match": {
              "location": "Login.mengosongkan_field_password_login_yang_salah()"
            },
            "keyword": "Given ",
            "BDD_STEP_UUID": "863dda97-929a-40cb-bcbf-b2acfca43644"
          },
          {
            "result": {
              "duration": 1633337000,
              "status": "passed"
            },
            "line": 28,
            "name": "User mengisi field email login dengan email yang valid",
            "match": {
              "location": "Login.user_mengisi_field_email_login_dengan_email_yang_valid()"
            },
            "keyword": "When ",
            "BDD_STEP_UUID": "e2c94d07-750d-4b29-9a4f-a811e2677a99"
          },
          {
            "result": {
              "duration": 1612759900,
              "status": "passed"
            },
            "line": 29,
            "name": "User mengisi field password login dengan valid",
            "match": {
              "location": "Login.user_mengisi_field_password_login_dengan_valid()"
            },
            "keyword": "Then ",
            "BDD_STEP_UUID": "29abcd00-8e1e-444f-8af3-c81fef99417c"
          },
          {
            "result": {
              "duration": 2849428300,
              "status": "passed"
            },
            "line": 30,
            "name": "User klik button Masuk Login",
            "match": {
              "location": "Login.user_klik_button_Masuk_Login()"
            },
            "keyword": "Then ",
            "BDD_STEP_UUID": "d9967a06-13df-49b7-ac61-2da621a5d3e4"
          },
          {
            "result": {
              "duration": 3012740700,
              "status": "passed"
            },
            "line": 31,
            "name": "Delay 3 detik",
            "match": {
              "arguments": [
                {
                  "val": "3",
                  "offset": 6
                }
              ],
              "location": "Registration.delay_detik(Integer)"
            },
            "keyword": "Given ",
            "BDD_STEP_UUID": "ac40be58-bc33-4beb-b589-29c790be090e"
          },
          {
            "result": {
              "duration": 326682800,
              "status": "passed"
            },
            "line": 32,
            "name": "User masuk ke halaman Akun Saya",
            "match": {
              "location": "Login.user_masuk_ke_halaman_Akun_Saya()"
            },
            "keyword": "Then ",
            "BDD_STEP_UUID": "a0140f9e-0184-4aa6-8396-0f485b1f1220"
          }
        ]
      }
    ],
    "name": "Login",
    "description": "",
    "id": "login",
    "keyword": "Feature",
    "uri": "C:/Users/nandi/Katalon Studio/platinum-challenge-kelompok-3-final/Secondhand-App/Include/features/Login.feature",
    "tags": []
  }
]