Suite/Test/Step Name,Browser,Description,Tag,Start time,End time,Duration,Status
TS - Registration,,,,2022-12-26 17:19:44,2022-12-26 17:21:26,1m - 41.921s,PASSED
,,,,,,,
Test Cases/Cucumber/TS.REG.01 - Registration,,,,2022-12-26 17:20:14,2022-12-26 17:21:26,1m - 12.038s,PASSED
"runFeatureFile(""Include/features/Registration.feature"")",,,,2022-12-26 17:20:16,2022-12-26 17:21:26,1m - 10.338s,PASSED
