[
  {
    "line": 1,
    "elements": [
      {
        "BDD_TESTRUN_UUID": "897d74c5-0344-4b51-a7e3-9ba2340692e4",
        "line": 3,
        "name": "User melakukan login akun dengan menggunakan email dan password yang valid",
        "description": "",
        "id": "login;user-melakukan-login-akun-dengan-menggunakan-email-dan-password-yang-valid",
        "type": "scenario",
        "keyword": "Scenario",
        "steps": [
          {
            "result": {
              "duration": 1027284100,
              "status": "passed"
            },
            "line": 4,
            "name": "User klik button Masuk",
            "match": {
              "location": "Registration.user_klik_button_Masuk()"
            },
            "keyword": "When ",
            "BDD_STEP_UUID": "6dc9e5d8-4ce2-49bf-98ae-95591d664bf4"
          },
          {
            "result": {
              "duration": 1452368200,
              "status": "passed"
            },
            "line": 5,
            "name": "User mengisi field email login dengan valid",
            "match": {
              "location": "Login.user_mengisi_field_email_login_dengan_valid()"
            },
            "keyword": "When ",
            "BDD_STEP_UUID": "83e00567-21db-4ea4-8f5e-da408518e48c"
          },
          {
            "result": {
              "duration": 1144788200,
              "status": "passed"
            },
            "line": 6,
            "name": "User mengisi field password login \"123456789\"",
            "match": {
              "arguments": [
                {
                  "val": "\"123456789\"",
                  "offset": 34
                }
              ],
              "location": "Login.user_mengisi_field_password_login(String)"
            },
            "keyword": "Then ",
            "BDD_STEP_UUID": "6ec32217-ac1c-4bb4-bd07-45656c32154c"
          },
          {
            "result": {
              "duration": 669250300,
              "status": "passed"
            },
            "line": 7,
            "name": "User klik tombol masuk",
            "match": {
              "location": "Login.user_klik_tombol_masuk()"
            },
            "keyword": "Then ",
            "BDD_STEP_UUID": "652e3c9e-a0ab-472f-80bb-872112af8b6c"
          },
          {
            "result": {
              "duration": 3185299100,
              "status": "passed"
            },
            "line": 8,
            "name": "Delay 3 detik",
            "match": {
              "arguments": [
                {
                  "val": "3",
                  "offset": 6
                }
              ],
              "location": "Registration.delay_detik(Integer)"
            },
            "keyword": "Given ",
            "BDD_STEP_UUID": "ed32ffce-cf28-4139-9e70-ea4e35210d9f"
          },
          {
            "result": {
              "duration": 2196885300,
              "status": "passed"
            },
            "line": 9,
            "name": "User screenshot layar",
            "match": {
              "location": "Registration.user_screenshot_layar()"
            },
            "keyword": "Then ",
            "BDD_STEP_UUID": "21e90f18-3513-436c-8ffb-d3a397489c60"
          }
        ]
      }
    ],
    "name": "Login",
    "description": "",
    "id": "login",
    "keyword": "Feature",
    "uri": "C:/Users/nandi/Katalon Studio/PlatinumChallenge_Kelompok3/Secondhand-Web/Include/features/Valid/Login-PositiveOnly.feature",
    "tags": []
  }
]