Suite/Test/Step Name,Browser,Description,Tag,Start time,End time,Duration,Status
TS - Login-Logout,,,,2022-12-26 18:34:07,2022-12-26 18:35:01,54.128s,PASSED
,,,,,,,
Test Cases/Cucumber/TS.LOT.11 - Logout,,,,2022-12-26 18:34:23,2022-12-26 18:35:01,38.312s,PASSED
"runFeatureFile(""Include/features/Logout.feature"")",,,,2022-12-26 18:34:24,2022-12-26 18:35:01,37.408s,PASSED
