[
  {
    "line": 1,
    "elements": [
      {
        "line": 3,
        "name": "User ingin edit produk yang di inginkan",
        "description": "",
        "id": "editproduk;user-ingin-edit-produk-yang-di-inginkan",
        "type": "scenario",
        "keyword": "Scenario",
        "steps": [
          {
            "result": {
              "duration": 1090184800,
              "status": "passed"
            },
            "line": 5,
            "name": "klik tombol list",
            "match": {
              "location": "EditProduk.klik_tombol_list()"
            },
            "keyword": "When "
          },
          {
            "result": {
              "duration": 3014408500,
              "status": "passed"
            },
            "line": 6,
            "name": "Klik foto produk",
            "match": {
              "location": "EditProduk.klik_foto_produk()"
            },
            "keyword": "Then "
          },
          {
            "result": {
              "duration": 1499123700,
              "status": "passed"
            },
            "line": 7,
            "name": "Klik button edit produk",
            "match": {
              "location": "EditProduk.klik_button_edit_produk()"
            },
            "keyword": "And "
          },
          {
            "result": {
              "duration": 1613711500,
              "status": "passed"
            },
            "line": 8,
            "name": "User mengkosongkan nama produk",
            "match": {
              "location": "EditProduk.user_mengkosongkan_nama_produk()"
            },
            "keyword": "When "
          },
          {
            "result": {
              "duration": 1124454800,
              "status": "passed"
            },
            "line": 9,
            "name": "User mengkosongkan harga produk",
            "match": {
              "location": "EditProduk.user_mengkosongkan_harga_produk()"
            },
            "keyword": "When "
          },
          {
            "result": {
              "duration": 1057431100,
              "status": "passed"
            },
            "line": 10,
            "name": "User mengkosongkan Deskripsi",
            "match": {
              "location": "EditProduk.user_mengkosongkan_Deskripsi()"
            },
            "keyword": "When "
          },
          {
            "result": {
              "duration": 3383273900,
              "status": "passed"
            },
            "line": 11,
            "name": "User mengisikan valid edit",
            "match": {
              "location": "EditProduk.user_mengisikan_valid_edit()"
            },
            "keyword": "When "
          },
          {
            "result": {
              "duration": 778353400,
              "status": "passed"
            },
            "line": 12,
            "name": "klik terbitkan",
            "match": {
              "location": "EditProduk.klik_terbitkan()"
            },
            "keyword": "Then "
          },
          {
            "result": {
              "duration": 5415140500,
              "status": "passed"
            },
            "line": 13,
            "name": "klik tombol list",
            "match": {
              "location": "EditProduk.klik_tombol_list()"
            },
            "keyword": "When "
          },
          {
            "result": {
              "duration": 1940608300,
              "status": "passed"
            },
            "line": 14,
            "name": "User screenshot layar",
            "match": {
              "location": "Registration.user_screenshot_layar()"
            },
            "keyword": "Then "
          }
        ]
      }
    ],
    "name": "EditProduk",
    "description": "",
    "id": "editproduk",
    "keyword": "Feature",
    "uri": "C:/Users/nandi/Katalon Studio/PlatinumChallenge_Kelompok3/Secondhand-Web/Include/features/EditProduk.feature",
    "tags": []
  }
]