[
  {
    "line": 1,
    "elements": [
      {
        "BDD_TESTRUN_UUID": "0a4516f7-ab6a-43d7-9953-106de7209bab",
        "line": 3,
        "name": "User melakukan login akun dengan menggunakan email dan password yang valid",
        "description": "",
        "id": "login;user-melakukan-login-akun-dengan-menggunakan-email-dan-password-yang-valid",
        "type": "scenario",
        "keyword": "Scenario",
        "steps": [
          {
            "result": {
              "duration": 1076374600,
              "status": "passed"
            },
            "line": 4,
            "name": "User klik button Masuk",
            "match": {
              "location": "Registration.user_klik_button_Masuk()"
            },
            "keyword": "When ",
            "BDD_STEP_UUID": "f9b1e1d2-692d-4e66-bfe4-4c33d18ca23c"
          },
          {
            "result": {
              "duration": 1275530400,
              "status": "passed"
            },
            "line": 5,
            "name": "User mengisi field email login dengan valid",
            "match": {
              "location": "Login.user_mengisi_field_email_login_dengan_valid()"
            },
            "keyword": "When ",
            "BDD_STEP_UUID": "d74f66b6-d4c2-4ff7-82c3-27ed14361c44"
          },
          {
            "result": {
              "duration": 1365510800,
              "status": "passed"
            },
            "line": 6,
            "name": "User mengisi field password login \"123456789\"",
            "match": {
              "arguments": [
                {
                  "val": "\"123456789\"",
                  "offset": 34
                }
              ],
              "location": "Login.user_mengisi_field_password_login(String)"
            },
            "keyword": "Then ",
            "BDD_STEP_UUID": "6fcd8696-f9c2-4431-bf50-7fe0e03486e1"
          },
          {
            "result": {
              "duration": 690873600,
              "status": "passed"
            },
            "line": 7,
            "name": "User klik tombol masuk",
            "match": {
              "location": "Login.user_klik_tombol_masuk()"
            },
            "keyword": "Then ",
            "BDD_STEP_UUID": "e7779d58-1664-4e1d-92b6-241f4b1c7f15"
          },
          {
            "result": {
              "duration": 3169596100,
              "status": "passed"
            },
            "line": 8,
            "name": "Delay 3 detik",
            "match": {
              "arguments": [
                {
                  "val": "3",
                  "offset": 6
                }
              ],
              "location": "Registration.delay_detik(Integer)"
            },
            "keyword": "Given ",
            "BDD_STEP_UUID": "468834b6-04e0-43fa-bf47-6ea9691fd8fc"
          },
          {
            "result": {
              "duration": 2171647200,
              "status": "passed"
            },
            "line": 9,
            "name": "User screenshot layar",
            "match": {
              "location": "Registration.user_screenshot_layar()"
            },
            "keyword": "Then ",
            "BDD_STEP_UUID": "2a2ff996-a552-4832-a3ed-66731721b50b"
          }
        ]
      }
    ],
    "name": "Login",
    "description": "",
    "id": "login",
    "keyword": "Feature",
    "uri": "C:/Users/nandi/Katalon Studio/PlatinumChallenge_Kelompok3/Secondhand-Web/Include/features/Valid/Login-PositiveOnly.feature",
    "tags": []
  }
]