[
  {
    "line": 1,
    "elements": [
      {
        "BDD_TESTRUN_UUID": "294b3fed-5082-45bb-9c9d-2bd1253ec545",
        "line": 3,
        "name": "valid nego",
        "description": "",
        "id": "buyer-negotiation;valid-nego",
        "type": "scenario",
        "keyword": "Scenario",
        "steps": [
          {
            "result": {
              "duration": 3047110700,
              "status": "passed"
            },
            "line": 5,
            "name": "click button sarung",
            "match": {
              "location": "Buyer.click_button_sarung()"
            },
            "keyword": "Then ",
            "BDD_STEP_UUID": "c0e7b7ff-1a5d-4f8c-a37a-c76b1c3ca0a7"
          },
          {
            "result": {
              "duration": 2623338100,
              "status": "passed"
            },
            "line": 6,
            "name": "scroll tittel sarung",
            "match": {
              "location": "Buyer.scroll_tittel_sarung()"
            },
            "keyword": "Then ",
            "BDD_STEP_UUID": "8197fd4b-f3e2-47b2-a517-60dfec382d6c"
          },
          {
            "result": {
              "duration": 5018950300,
              "status": "passed"
            },
            "line": 7,
            "name": "Delay lima detik",
            "match": {
              "location": "Buyer.delay_lima_detik()"
            },
            "keyword": "Then ",
            "BDD_STEP_UUID": "fe75bd59-2173-4e68-9202-86758293f3a0"
          },
          {
            "result": {
              "duration": 867296500,
              "status": "passed"
            },
            "line": 8,
            "name": "Click button saya tertarik dan nego",
            "match": {
              "location": "Buyer.click_button_saya_tertarik_dan_nego()"
            },
            "keyword": "Then ",
            "BDD_STEP_UUID": "4df7c296-19f6-49cd-bfa3-f8c29cce5eb8"
          },
          {
            "result": {
              "duration": 1066461800,
              "status": "passed"
            },
            "line": 9,
            "name": "insert harga tawar",
            "match": {
              "location": "Buyer.insert_harga_tawar()"
            },
            "keyword": "Then ",
            "BDD_STEP_UUID": "2bf4b1ee-7547-4cb7-9fbb-687cb20c07b1"
          },
          {
            "result": {
              "duration": 836092000,
              "status": "passed"
            },
            "line": 10,
            "name": "Click button kirim",
            "match": {
              "location": "Buyer.click_button_kirim()"
            },
            "keyword": "Then ",
            "BDD_STEP_UUID": "e28bf03c-b2be-4641-bedf-310ef5dc09a7"
          },
          {
            "result": {
              "duration": 1474486900,
              "status": "passed"
            },
            "line": 11,
            "name": "User screenshot layar",
            "match": {
              "location": "Registration.user_screenshot_layar()"
            },
            "keyword": "Then ",
            "BDD_STEP_UUID": "e2cd51aa-9f41-4daa-a380-7474269416db"
          }
        ]
      }
    ],
    "name": "Buyer Negotiation",
    "description": "",
    "id": "buyer-negotiation",
    "keyword": "Feature",
    "uri": "C:/Users/nandi/Katalon Studio/PlatinumChallenge_Kelompok3/Secondhand-Web/Include/features/Buyer.feature",
    "tags": []
  }
]