[
  {
    "line": 1,
    "elements": [
      {
        "line": 3,
        "name": "User melakukan pendaftaran akun tanpa mengisi semua input field yang dibutuhkan",
        "description": "",
        "id": "registration;user-melakukan-pendaftaran-akun-tanpa-mengisi-semua-input-field-yang-dibutuhkan",
        "type": "scenario",
        "keyword": "Scenario",
        "steps": [
          {
            "result": {
              "duration": 3458167300,
              "status": "passed"
            },
            "line": 4,
            "name": "User klik button Akun",
            "match": {
              "location": "Registration.user_klik_button_Akun()"
            },
            "keyword": "When "
          },
          {
            "result": {
              "duration": 904934700,
              "status": "passed"
            },
            "line": 5,
            "name": "User klik button Masuk",
            "match": {
              "location": "Registration.user_klik_button_Masuk()"
            },
            "keyword": "Then "
          },
          {
            "result": {
              "duration": 3248451200,
              "status": "passed"
            },
            "line": 6,
            "name": "Delay 3 detik",
            "match": {
              "arguments": [
                {
                  "val": "3",
                  "offset": 6
                }
              ],
              "location": "Registration.delay_detik(Integer)"
            },
            "keyword": "Given "
          },
          {
            "result": {
              "duration": 616472300,
              "status": "passed"
            },
            "line": 7,
            "name": "User klik text button Daftar",
            "match": {
              "location": "Registration.user_klik_text_button_Daftar()"
            },
            "keyword": "Then "
          },
          {
            "result": {
              "duration": 1960483300,
              "status": "passed"
            },
            "line": 8,
            "name": "User klik button Daftar",
            "match": {
              "location": "Registration.user_klik_button_Daftar()"
            },
            "keyword": "Then "
          },
          {
            "result": {
              "duration": 3021750700,
              "status": "passed"
            },
            "line": 9,
            "name": "Delay 3 detik",
            "match": {
              "arguments": [
                {
                  "val": "3",
                  "offset": 6
                }
              ],
              "location": "Registration.delay_detik(Integer)"
            },
            "keyword": "Given "
          },
          {
            "result": {
              "duration": 592374000,
              "status": "passed"
            },
            "line": 10,
            "name": "User mendapatkan alert bahwa field tidak boleh kosong",
            "match": {
              "location": "Registration.user_mendapatkan_alert_bahwa_field_tidak_boleh_kosong()"
            },
            "keyword": "Then "
          }
        ]
      },
      {
        "line": 12,
        "name": "User melakukan pendaftaran akun menggunakan email yang tidak valid",
        "description": "",
        "id": "registration;user-melakukan-pendaftaran-akun-menggunakan-email-yang-tidak-valid",
        "type": "scenario",
        "keyword": "Scenario",
        "steps": [
          {
            "result": {
              "duration": 1805975300,
              "status": "passed"
            },
            "line": 13,
            "name": "User mengisi field nama dengan \"Pukaxa\"",
            "match": {
              "arguments": [
                {
                  "val": "\"Pukaxa\"",
                  "offset": 31
                }
              ],
              "location": "Registration.user_mengisi_field_nama_dengan(String)"
            },
            "keyword": "When "
          },
          {
            "result": {
              "duration": 1737912400,
              "status": "passed"
            },
            "line": 14,
            "name": "User mengisi field email dengan tidak valid",
            "match": {
              "location": "Registration.user_mengisi_field_email_dengan_tidak_valid()"
            },
            "keyword": "Then "
          },
          {
            "result": {
              "duration": 1730261100,
              "status": "passed"
            },
            "line": 15,
            "name": "User mengisi field password dengan valid",
            "match": {
              "location": "Registration.user_mengisi_field_password_dengan_valid()"
            },
            "keyword": "Then "
          },
          {
            "result": {
              "duration": 1759349400,
              "status": "passed"
            },
            "line": 16,
            "name": "User mengisi field nomor hp dengan \"085445695220\"",
            "match": {
              "arguments": [
                {
                  "val": "\"085445695220\"",
                  "offset": 35
                }
              ],
              "location": "Registration.user_mengisi_field_nomor_hp_dengan(String)"
            },
            "keyword": "Then "
          },
          {
            "result": {
              "duration": 1728988300,
              "status": "passed"
            },
            "line": 17,
            "name": "User mengisi field kota dengan \"Bandung\"",
            "match": {
              "arguments": [
                {
                  "val": "\"Bandung\"",
                  "offset": 31
                }
              ],
              "location": "Registration.user_mengisi_field_kota_dengan(String)"
            },
            "keyword": "Then "
          },
          {
            "result": {
              "duration": 1709106600,
              "status": "passed"
            },
            "line": 18,
            "name": "User mengisi field alamat dengan \"Jalan kaki\"",
            "match": {
              "arguments": [
                {
                  "val": "\"Jalan kaki\"",
                  "offset": 33
                }
              ],
              "location": "Registration.user_mengisi_field_alamat_dengan(String)"
            },
            "keyword": "Then "
          },
          {
            "result": {
              "duration": 5159340400,
              "status": "passed"
            },
            "line": 19,
            "name": "User scroll layar ke button Daftar",
            "match": {
              "location": "Registration.user_scroll_layar_ke_button_Daftar()"
            },
            "keyword": "Then "
          },
          {
            "result": {
              "duration": 737403100,
              "status": "passed"
            },
            "line": 20,
            "name": "User klik button Daftar",
            "match": {
              "location": "Registration.user_klik_button_Daftar()"
            },
            "keyword": "Then "
          },
          {
            "result": {
              "duration": 3011860900,
              "status": "passed"
            },
            "line": 21,
            "name": "Delay 3 detik",
            "match": {
              "arguments": [
                {
                  "val": "3",
                  "offset": 6
                }
              ],
              "location": "Registration.delay_detik(Integer)"
            },
            "keyword": "Given "
          },
          {
            "result": {
              "duration": 446326300,
              "status": "passed"
            },
            "line": 22,
            "name": "User mendapatkan alert bahwa email tidak valid",
            "match": {
              "location": "Registration.user_mendapatkan_alert_bahwa_email_tidak_valid()"
            },
            "keyword": "Then "
          }
        ]
      },
      {
        "line": 24,
        "name": "User melakukan pendaftaran akun menggunakan password yang tidak valid",
        "description": "",
        "id": "registration;user-melakukan-pendaftaran-akun-menggunakan-password-yang-tidak-valid",
        "type": "scenario",
        "keyword": "Scenario",
        "steps": [
          {
            "result": {
              "duration": 592573200,
              "status": "passed"
            },
            "line": 25,
            "name": "Mengosongkan field nama Pukaxa",
            "match": {
              "location": "Registration.mengosongkan_field_nama_Pukaxa()"
            },
            "keyword": "Given "
          },
          {
            "result": {
              "duration": 655515600,
              "status": "passed"
            },
            "line": 26,
            "name": "Mengosongkan field email pukaxa521",
            "match": {
              "location": "Registration.mengosongkan_field_email_pukaxa521()"
            },
            "keyword": "Given "
          },
          {
            "result": {
              "duration": 712270300,
              "status": "passed"
            },
            "line": 27,
            "name": "Mengosongkan field password RigbBhfdqOBGNlJIWM1ClA",
            "match": {
              "location": "Registration.mengosongkan_field_password_RigbBhfdqOBGNlJIWM1ClA()"
            },
            "keyword": "Given "
          },
          {
            "result": {
              "duration": 1714962200,
              "status": "passed"
            },
            "line": 28,
            "name": "User mengisi field nama dengan \"Pukaxa\"",
            "match": {
              "arguments": [
                {
                  "val": "\"Pukaxa\"",
                  "offset": 31
                }
              ],
              "location": "Registration.user_mengisi_field_nama_dengan(String)"
            },
            "keyword": "When "
          },
          {
            "result": {
              "duration": 2287082300,
              "status": "passed"
            },
            "line": 29,
            "name": "User mengisi field email dengan email baru",
            "match": {
              "location": "Registration.user_mengisi_field_email_dengan_email_baru()"
            },
            "keyword": "Then "
          },
          {
            "result": {
              "duration": 1743607300,
              "status": "passed"
            },
            "line": 30,
            "name": "User mengisi field password dengan tidak valid",
            "match": {
              "location": "Registration.user_mengisi_field_password_dengan_tidak_valid()"
            },
            "keyword": "Then "
          },
          {
            "result": {
              "duration": 1921313500,
              "status": "passed"
            },
            "line": 31,
            "name": "User klik button Daftar",
            "match": {
              "location": "Registration.user_klik_button_Daftar()"
            },
            "keyword": "Then "
          },
          {
            "result": {
              "duration": 3012414400,
              "status": "passed"
            },
            "line": 32,
            "name": "Delay 3 detik",
            "match": {
              "arguments": [
                {
                  "val": "3",
                  "offset": 6
                }
              ],
              "location": "Registration.delay_detik(Integer)"
            },
            "keyword": "Given "
          },
          {
            "result": {
              "duration": 536623100,
              "status": "passed"
            },
            "line": 33,
            "name": "User mendapatkan alert bahwa password minimal 6 karakter",
            "match": {
              "arguments": [
                {
                  "val": "6",
                  "offset": 46
                }
              ],
              "location": "Registration.user_mendapatkan_alert_bahwa_password_minimal_karakter(Integer)"
            },
            "keyword": "Then "
          }
        ]
      },
      {
        "line": 35,
        "name": "User melakukan pendaftaran akun menggunakan email yang sudah terdaftar",
        "description": "",
        "id": "registration;user-melakukan-pendaftaran-akun-menggunakan-email-yang-sudah-terdaftar",
        "type": "scenario",
        "keyword": "Scenario",
        "steps": [
          {
            "result": {
              "duration": 458589700,
              "status": "passed"
            },
            "line": 36,
            "name": "Mengosongkan field nama Pukaxa",
            "match": {
              "location": "Registration.mengosongkan_field_nama_Pukaxa()"
            },
            "keyword": "Given "
          },
          {
            "result": {
              "duration": 749058400,
              "status": "passed"
            },
            "line": 37,
            "name": "Mengosongkan field email sebelumnya",
            "match": {
              "location": "Registration.mengosongkan_field_email_sebelumnya()"
            },
            "keyword": "Given "
          },
          {
            "result": {
              "duration": 779950600,
              "status": "passed"
            },
            "line": 38,
            "name": "Mengosongkan field password tzH6RvlfSTg",
            "match": {
              "location": "Registration.mengosongkan_field_password_tzH6RvlfSTg()"
            },
            "keyword": "Given "
          },
          {
            "result": {
              "duration": 1691662700,
              "status": "passed"
            },
            "line": 39,
            "name": "User mengisi field nama dengan \"Pukaxa\"",
            "match": {
              "arguments": [
                {
                  "val": "\"Pukaxa\"",
                  "offset": 31
                }
              ],
              "location": "Registration.user_mengisi_field_nama_dengan(String)"
            },
            "keyword": "When "
          },
          {
            "result": {
              "duration": 1675581800,
              "status": "passed"
            },
            "line": 40,
            "name": "User mengisi field email yang sudah terdaftar",
            "match": {
              "location": "Registration.user_mengisi_field_email_yang_sudah_terdaftar()"
            },
            "keyword": "Then "
          },
          {
            "result": {
              "duration": 1288784900,
              "status": "passed"
            },
            "line": 41,
            "name": "User mengisi field password dengan valid",
            "match": {
              "location": "Registration.user_mengisi_field_password_dengan_valid()"
            },
            "keyword": "Then "
          },
          {
            "result": {
              "duration": 1418299400,
              "status": "passed"
            },
            "line": 42,
            "name": "User klik button Daftar",
            "match": {
              "location": "Registration.user_klik_button_Daftar()"
            },
            "keyword": "Then "
          },
          {
            "result": {
              "duration": 3015143200,
              "status": "passed"
            },
            "line": 43,
            "name": "Delay 3 detik",
            "match": {
              "arguments": [
                {
                  "val": "3",
                  "offset": 6
                }
              ],
              "location": "Registration.delay_detik(Integer)"
            },
            "keyword": "Given "
          }
        ]
      },
      {
        "line": 45,
        "name": "User melakukan pendaftaran akun dengan mengisi semua input field yang dibutuhkan dengan valid",
        "description": "",
        "id": "registration;user-melakukan-pendaftaran-akun-dengan-mengisi-semua-input-field-yang-dibutuhkan-dengan-valid",
        "type": "scenario",
        "keyword": "Scenario",
        "steps": [
          {
            "result": {
              "duration": 433077100,
              "status": "passed"
            },
            "line": 46,
            "name": "Mengosongkan field nama Pukaxa",
            "match": {
              "location": "Registration.mengosongkan_field_nama_Pukaxa()"
            },
            "keyword": "Given "
          },
          {
            "result": {
              "duration": 681253800,
              "status": "passed"
            },
            "line": 47,
            "name": "Mengosongkan field email pukaxa721",
            "match": {
              "location": "Registration.mengosongkan_field_email_pukaxa721()"
            },
            "keyword": "Given "
          },
          {
            "result": {
              "duration": 1675780100,
              "status": "passed"
            },
            "line": 48,
            "name": "User mengisi field nama dengan \"Pukaxa\"",
            "match": {
              "arguments": [
                {
                  "val": "\"Pukaxa\"",
                  "offset": 31
                }
              ],
              "location": "Registration.user_mengisi_field_nama_dengan(String)"
            },
            "keyword": "When "
          },
          {
            "result": {
              "duration": 1675610200,
              "status": "passed"
            },
            "line": 49,
            "name": "User mengisi field email dengan valid - random \"aaaa@getnada.com\"",
            "match": {
              "arguments": [
                {
                  "val": "\"aaaa@getnada.com\"",
                  "offset": 47
                }
              ],
              "location": "Registration.user_mengisi_field_email_dengan_valid_random(String)"
            },
            "keyword": "Then "
          },
          {
            "result": {
              "duration": 1318376700,
              "status": "passed"
            },
            "line": 50,
            "name": "User klik button Daftar",
            "match": {
              "location": "Registration.user_klik_button_Daftar()"
            },
            "keyword": "Then "
          },
          {
            "result": {
              "duration": 3008255000,
              "status": "passed"
            },
            "line": 51,
            "name": "Delay 3 detik",
            "match": {
              "arguments": [
                {
                  "val": "3",
                  "offset": 6
                }
              ],
              "location": "Registration.delay_detik(Integer)"
            },
            "keyword": "Given "
          },
          {
            "result": {
              "duration": 509519300,
              "status": "passed"
            },
            "line": 52,
            "name": "User berhasil masuk ke halaman Akun Saya",
            "match": {
              "location": "Registration.user_berhasil_masuk_ke_halaman_Akun_Saya()"
            },
            "keyword": "Then "
          }
        ]
      }
    ],
    "name": "Registration",
    "description": "",
    "id": "registration",
    "keyword": "Feature",
    "uri": "C:/Users/nandi/Katalon Studio/platinum-challenge-kelompok-3-final/Secondhand-App/Include/features/Registration.feature",
    "tags": []
  }
]