[
  {
    "line": 1,
    "elements": [
      {
        "BDD_TESTRUN_UUID": "13004d05-0d60-4867-bae4-6d0cac84b009",
        "line": 3,
        "name": "User melakukan pendaftaran akun tanpa mengisi semua input field yang dibutuhkan",
        "description": "",
        "id": "registration;user-melakukan-pendaftaran-akun-tanpa-mengisi-semua-input-field-yang-dibutuhkan",
        "type": "scenario",
        "keyword": "Scenario",
        "steps": [
          {
            "result": {
              "duration": 3458167300,
              "status": "passed"
            },
            "line": 4,
            "name": "User klik button Akun",
            "match": {
              "location": "Registration.user_klik_button_Akun()"
            },
            "keyword": "When ",
            "BDD_STEP_UUID": "253a1d95-d867-4657-bc95-292f8db41c75"
          },
          {
            "result": {
              "duration": 904934700,
              "status": "passed"
            },
            "line": 5,
            "name": "User klik button Masuk",
            "match": {
              "location": "Registration.user_klik_button_Masuk()"
            },
            "keyword": "Then ",
            "BDD_STEP_UUID": "be040691-e727-4185-964d-70fad3f59003"
          },
          {
            "result": {
              "duration": 3248451200,
              "status": "passed"
            },
            "line": 6,
            "name": "Delay 3 detik",
            "match": {
              "arguments": [
                {
                  "val": "3",
                  "offset": 6
                }
              ],
              "location": "Registration.delay_detik(Integer)"
            },
            "keyword": "Given ",
            "BDD_STEP_UUID": "872f981a-2ef8-43c8-8e17-78de7401335a"
          },
          {
            "result": {
              "duration": 616472300,
              "status": "passed"
            },
            "line": 7,
            "name": "User klik text button Daftar",
            "match": {
              "location": "Registration.user_klik_text_button_Daftar()"
            },
            "keyword": "Then ",
            "BDD_STEP_UUID": "81061cf1-a9c6-44e8-ac3f-6f814e24d879"
          },
          {
            "result": {
              "duration": 1960483300,
              "status": "passed"
            },
            "line": 8,
            "name": "User klik button Daftar",
            "match": {
              "location": "Registration.user_klik_button_Daftar()"
            },
            "keyword": "Then ",
            "BDD_STEP_UUID": "3de71657-41a5-4e15-bd2c-02e0b1aff316"
          },
          {
            "result": {
              "duration": 3021750700,
              "status": "passed"
            },
            "line": 9,
            "name": "Delay 3 detik",
            "match": {
              "arguments": [
                {
                  "val": "3",
                  "offset": 6
                }
              ],
              "location": "Registration.delay_detik(Integer)"
            },
            "keyword": "Given ",
            "BDD_STEP_UUID": "16280127-8307-4b06-ba35-bf850c831ee7"
          },
          {
            "result": {
              "duration": 592374000,
              "status": "passed"
            },
            "line": 10,
            "name": "User mendapatkan alert bahwa field tidak boleh kosong",
            "match": {
              "location": "Registration.user_mendapatkan_alert_bahwa_field_tidak_boleh_kosong()"
            },
            "keyword": "Then ",
            "BDD_STEP_UUID": "dcb4eeb1-34b4-4ea2-8149-9dc52a292bc2"
          }
        ]
      },
      {
        "BDD_TESTRUN_UUID": "bc1ba749-be8c-4484-bfa2-37edd4e7dbdb",
        "line": 12,
        "name": "User melakukan pendaftaran akun menggunakan email yang tidak valid",
        "description": "",
        "id": "registration;user-melakukan-pendaftaran-akun-menggunakan-email-yang-tidak-valid",
        "type": "scenario",
        "keyword": "Scenario",
        "steps": [
          {
            "result": {
              "duration": 1805975300,
              "status": "passed"
            },
            "line": 13,
            "name": "User mengisi field nama dengan \"Pukaxa\"",
            "match": {
              "arguments": [
                {
                  "val": "\"Pukaxa\"",
                  "offset": 31
                }
              ],
              "location": "Registration.user_mengisi_field_nama_dengan(String)"
            },
            "keyword": "When ",
            "BDD_STEP_UUID": "bbf6805a-e540-4ebe-9a73-f0c200f9e9db"
          },
          {
            "result": {
              "duration": 1737912400,
              "status": "passed"
            },
            "line": 14,
            "name": "User mengisi field email dengan tidak valid",
            "match": {
              "location": "Registration.user_mengisi_field_email_dengan_tidak_valid()"
            },
            "keyword": "Then ",
            "BDD_STEP_UUID": "ce7d7329-630a-450c-a82c-12d39c4fcca9"
          },
          {
            "result": {
              "duration": 1730261100,
              "status": "passed"
            },
            "line": 15,
            "name": "User mengisi field password dengan valid",
            "match": {
              "location": "Registration.user_mengisi_field_password_dengan_valid()"
            },
            "keyword": "Then ",
            "BDD_STEP_UUID": "5d7e27cc-c394-4d9a-b025-3ace2e9d0d17"
          },
          {
            "result": {
              "duration": 1759349400,
              "status": "passed"
            },
            "line": 16,
            "name": "User mengisi field nomor hp dengan \"085445695220\"",
            "match": {
              "arguments": [
                {
                  "val": "\"085445695220\"",
                  "offset": 35
                }
              ],
              "location": "Registration.user_mengisi_field_nomor_hp_dengan(String)"
            },
            "keyword": "Then ",
            "BDD_STEP_UUID": "5cb5dc43-7c80-472f-9b3d-549a730f3502"
          },
          {
            "result": {
              "duration": 1728988300,
              "status": "passed"
            },
            "line": 17,
            "name": "User mengisi field kota dengan \"Bandung\"",
            "match": {
              "arguments": [
                {
                  "val": "\"Bandung\"",
                  "offset": 31
                }
              ],
              "location": "Registration.user_mengisi_field_kota_dengan(String)"
            },
            "keyword": "Then ",
            "BDD_STEP_UUID": "e019febc-b49c-415f-932c-84c9b6f97d77"
          },
          {
            "result": {
              "duration": 1709106600,
              "status": "passed"
            },
            "line": 18,
            "name": "User mengisi field alamat dengan \"Jalan kaki\"",
            "match": {
              "arguments": [
                {
                  "val": "\"Jalan kaki\"",
                  "offset": 33
                }
              ],
              "location": "Registration.user_mengisi_field_alamat_dengan(String)"
            },
            "keyword": "Then ",
            "BDD_STEP_UUID": "189e84db-9ba4-4bf0-b9a2-963a823d137d"
          },
          {
            "result": {
              "duration": 5159340400,
              "status": "passed"
            },
            "line": 19,
            "name": "User scroll layar ke button Daftar",
            "match": {
              "location": "Registration.user_scroll_layar_ke_button_Daftar()"
            },
            "keyword": "Then ",
            "BDD_STEP_UUID": "978933af-8dc8-4021-bd59-178c2e517748"
          },
          {
            "result": {
              "duration": 737403100,
              "status": "passed"
            },
            "line": 20,
            "name": "User klik button Daftar",
            "match": {
              "location": "Registration.user_klik_button_Daftar()"
            },
            "keyword": "Then ",
            "BDD_STEP_UUID": "87170199-4abe-479a-b96b-5d23ac2ef9f5"
          },
          {
            "result": {
              "duration": 3011860900,
              "status": "passed"
            },
            "line": 21,
            "name": "Delay 3 detik",
            "match": {
              "arguments": [
                {
                  "val": "3",
                  "offset": 6
                }
              ],
              "location": "Registration.delay_detik(Integer)"
            },
            "keyword": "Given ",
            "BDD_STEP_UUID": "5c62d71c-e3a1-427f-a890-eb2e885073d7"
          },
          {
            "result": {
              "duration": 446326300,
              "status": "passed"
            },
            "line": 22,
            "name": "User mendapatkan alert bahwa email tidak valid",
            "match": {
              "location": "Registration.user_mendapatkan_alert_bahwa_email_tidak_valid()"
            },
            "keyword": "Then ",
            "BDD_STEP_UUID": "5fb8af53-c1bb-4a8f-95e4-83d121685ce9"
          }
        ]
      },
      {
        "BDD_TESTRUN_UUID": "0f2e3daa-5559-4937-97fa-5a7fde7cb3a9",
        "line": 24,
        "name": "User melakukan pendaftaran akun menggunakan password yang tidak valid",
        "description": "",
        "id": "registration;user-melakukan-pendaftaran-akun-menggunakan-password-yang-tidak-valid",
        "type": "scenario",
        "keyword": "Scenario",
        "steps": [
          {
            "result": {
              "duration": 592573200,
              "status": "passed"
            },
            "line": 25,
            "name": "Mengosongkan field nama Pukaxa",
            "match": {
              "location": "Registration.mengosongkan_field_nama_Pukaxa()"
            },
            "keyword": "Given ",
            "BDD_STEP_UUID": "c777df34-2294-4342-983b-05780da68385"
          },
          {
            "result": {
              "duration": 655515600,
              "status": "passed"
            },
            "line": 26,
            "name": "Mengosongkan field email pukaxa521",
            "match": {
              "location": "Registration.mengosongkan_field_email_pukaxa521()"
            },
            "keyword": "Given ",
            "BDD_STEP_UUID": "4348c98c-3d6e-415c-9b79-d8465699c6a8"
          },
          {
            "result": {
              "duration": 712270300,
              "status": "passed"
            },
            "line": 27,
            "name": "Mengosongkan field password RigbBhfdqOBGNlJIWM1ClA",
            "match": {
              "location": "Registration.mengosongkan_field_password_RigbBhfdqOBGNlJIWM1ClA()"
            },
            "keyword": "Given ",
            "BDD_STEP_UUID": "7f8c53e7-f446-4340-b19d-2fea0054e23b"
          },
          {
            "result": {
              "duration": 1714962200,
              "status": "passed"
            },
            "line": 28,
            "name": "User mengisi field nama dengan \"Pukaxa\"",
            "match": {
              "arguments": [
                {
                  "val": "\"Pukaxa\"",
                  "offset": 31
                }
              ],
              "location": "Registration.user_mengisi_field_nama_dengan(String)"
            },
            "keyword": "When ",
            "BDD_STEP_UUID": "3432e626-a947-4f0e-92eb-370aa0dfb241"
          },
          {
            "result": {
              "duration": 2287082300,
              "status": "passed"
            },
            "line": 29,
            "name": "User mengisi field email dengan email baru",
            "match": {
              "location": "Registration.user_mengisi_field_email_dengan_email_baru()"
            },
            "keyword": "Then ",
            "BDD_STEP_UUID": "e7bb43f8-6f7b-47f5-bf63-45e72577ba26"
          },
          {
            "result": {
              "duration": 1743607300,
              "status": "passed"
            },
            "line": 30,
            "name": "User mengisi field password dengan tidak valid",
            "match": {
              "location": "Registration.user_mengisi_field_password_dengan_tidak_valid()"
            },
            "keyword": "Then ",
            "BDD_STEP_UUID": "85194616-02fc-4611-8f85-3667e6a74c0c"
          },
          {
            "result": {
              "duration": 1921313500,
              "status": "passed"
            },
            "line": 31,
            "name": "User klik button Daftar",
            "match": {
              "location": "Registration.user_klik_button_Daftar()"
            },
            "keyword": "Then ",
            "BDD_STEP_UUID": "95555250-812a-4fce-bfab-67f5fcffbcfd"
          },
          {
            "result": {
              "duration": 3012414400,
              "status": "passed"
            },
            "line": 32,
            "name": "Delay 3 detik",
            "match": {
              "arguments": [
                {
                  "val": "3",
                  "offset": 6
                }
              ],
              "location": "Registration.delay_detik(Integer)"
            },
            "keyword": "Given ",
            "BDD_STEP_UUID": "6c4f99e6-d812-4965-ba0b-39650f8eb11a"
          },
          {
            "result": {
              "duration": 536623100,
              "status": "passed"
            },
            "line": 33,
            "name": "User mendapatkan alert bahwa password minimal 6 karakter",
            "match": {
              "arguments": [
                {
                  "val": "6",
                  "offset": 46
                }
              ],
              "location": "Registration.user_mendapatkan_alert_bahwa_password_minimal_karakter(Integer)"
            },
            "keyword": "Then ",
            "BDD_STEP_UUID": "44a5e081-6147-4fa7-8856-bdcbb0b690f7"
          }
        ]
      },
      {
        "BDD_TESTRUN_UUID": "c758ff65-56f1-40e6-bf85-8ab0ac22bd47",
        "line": 35,
        "name": "User melakukan pendaftaran akun menggunakan email yang sudah terdaftar",
        "description": "",
        "id": "registration;user-melakukan-pendaftaran-akun-menggunakan-email-yang-sudah-terdaftar",
        "type": "scenario",
        "keyword": "Scenario",
        "steps": [
          {
            "result": {
              "duration": 458589700,
              "status": "passed"
            },
            "line": 36,
            "name": "Mengosongkan field nama Pukaxa",
            "match": {
              "location": "Registration.mengosongkan_field_nama_Pukaxa()"
            },
            "keyword": "Given ",
            "BDD_STEP_UUID": "da3fb109-682e-4470-ae44-168edb0756b5"
          },
          {
            "result": {
              "duration": 749058400,
              "status": "passed"
            },
            "line": 37,
            "name": "Mengosongkan field email sebelumnya",
            "match": {
              "location": "Registration.mengosongkan_field_email_sebelumnya()"
            },
            "keyword": "Given ",
            "BDD_STEP_UUID": "f4192e75-371f-40f0-b869-db0f5b0b1b2d"
          },
          {
            "result": {
              "duration": 779950600,
              "status": "passed"
            },
            "line": 38,
            "name": "Mengosongkan field password tzH6RvlfSTg",
            "match": {
              "location": "Registration.mengosongkan_field_password_tzH6RvlfSTg()"
            },
            "keyword": "Given ",
            "BDD_STEP_UUID": "d11d5c90-d693-41f8-9d03-3651b4f5f15f"
          },
          {
            "result": {
              "duration": 1691662700,
              "status": "passed"
            },
            "line": 39,
            "name": "User mengisi field nama dengan \"Pukaxa\"",
            "match": {
              "arguments": [
                {
                  "val": "\"Pukaxa\"",
                  "offset": 31
                }
              ],
              "location": "Registration.user_mengisi_field_nama_dengan(String)"
            },
            "keyword": "When ",
            "BDD_STEP_UUID": "3b25ad15-8d5a-4d08-abb6-e629b5e5ef31"
          },
          {
            "result": {
              "duration": 1675581800,
              "status": "passed"
            },
            "line": 40,
            "name": "User mengisi field email yang sudah terdaftar",
            "match": {
              "location": "Registration.user_mengisi_field_email_yang_sudah_terdaftar()"
            },
            "keyword": "Then ",
            "BDD_STEP_UUID": "f85e3726-b0af-4295-9f48-71323d0c9b38"
          },
          {
            "result": {
              "duration": 1288784900,
              "status": "passed"
            },
            "line": 41,
            "name": "User mengisi field password dengan valid",
            "match": {
              "location": "Registration.user_mengisi_field_password_dengan_valid()"
            },
            "keyword": "Then ",
            "BDD_STEP_UUID": "b553c1cb-86cd-414c-a66c-9d3c7a3887a5"
          },
          {
            "result": {
              "duration": 1418299400,
              "status": "passed"
            },
            "line": 42,
            "name": "User klik button Daftar",
            "match": {
              "location": "Registration.user_klik_button_Daftar()"
            },
            "keyword": "Then ",
            "BDD_STEP_UUID": "be69a2b6-7e4f-4581-8d6c-df437a41ecdd"
          },
          {
            "result": {
              "duration": 3015143200,
              "status": "passed"
            },
            "line": 43,
            "name": "Delay 3 detik",
            "match": {
              "arguments": [
                {
                  "val": "3",
                  "offset": 6
                }
              ],
              "location": "Registration.delay_detik(Integer)"
            },
            "keyword": "Given ",
            "BDD_STEP_UUID": "c1d36daa-f3cd-4418-8ac2-157f9f3b4e9c"
          }
        ]
      },
      {
        "BDD_TESTRUN_UUID": "7066ab08-8e8c-47a8-9841-5527e36cc315",
        "line": 45,
        "name": "User melakukan pendaftaran akun dengan mengisi semua input field yang dibutuhkan dengan valid",
        "description": "",
        "id": "registration;user-melakukan-pendaftaran-akun-dengan-mengisi-semua-input-field-yang-dibutuhkan-dengan-valid",
        "type": "scenario",
        "keyword": "Scenario",
        "steps": [
          {
            "result": {
              "duration": 433077100,
              "status": "passed"
            },
            "line": 46,
            "name": "Mengosongkan field nama Pukaxa",
            "match": {
              "location": "Registration.mengosongkan_field_nama_Pukaxa()"
            },
            "keyword": "Given ",
            "BDD_STEP_UUID": "507678fd-967a-468a-a7b2-f99a92aa8472"
          },
          {
            "result": {
              "duration": 681253800,
              "status": "passed"
            },
            "line": 47,
            "name": "Mengosongkan field email pukaxa721",
            "match": {
              "location": "Registration.mengosongkan_field_email_pukaxa721()"
            },
            "keyword": "Given ",
            "BDD_STEP_UUID": "7d6bbf5f-3330-4e93-892c-93f66efef68e"
          },
          {
            "result": {
              "duration": 1675780100,
              "status": "passed"
            },
            "line": 48,
            "name": "User mengisi field nama dengan \"Pukaxa\"",
            "match": {
              "arguments": [
                {
                  "val": "\"Pukaxa\"",
                  "offset": 31
                }
              ],
              "location": "Registration.user_mengisi_field_nama_dengan(String)"
            },
            "keyword": "When ",
            "BDD_STEP_UUID": "ae668da6-2212-458e-9405-dccac15c07fa"
          },
          {
            "result": {
              "duration": 1675610200,
              "status": "passed"
            },
            "line": 49,
            "name": "User mengisi field email dengan valid - random \"aaaa@getnada.com\"",
            "match": {
              "arguments": [
                {
                  "val": "\"aaaa@getnada.com\"",
                  "offset": 47
                }
              ],
              "location": "Registration.user_mengisi_field_email_dengan_valid_random(String)"
            },
            "keyword": "Then ",
            "BDD_STEP_UUID": "36933e65-dd7f-43d0-be66-cb3548de018b"
          },
          {
            "result": {
              "duration": 1318376700,
              "status": "passed"
            },
            "line": 50,
            "name": "User klik button Daftar",
            "match": {
              "location": "Registration.user_klik_button_Daftar()"
            },
            "keyword": "Then ",
            "BDD_STEP_UUID": "99fc9b91-b03d-48b9-b84f-996415b5db77"
          },
          {
            "result": {
              "duration": 3008255000,
              "status": "passed"
            },
            "line": 51,
            "name": "Delay 3 detik",
            "match": {
              "arguments": [
                {
                  "val": "3",
                  "offset": 6
                }
              ],
              "location": "Registration.delay_detik(Integer)"
            },
            "keyword": "Given ",
            "BDD_STEP_UUID": "fd1b03ef-7868-45a1-9ace-480d1e8933b0"
          },
          {
            "result": {
              "duration": 509519300,
              "status": "passed"
            },
            "line": 52,
            "name": "User berhasil masuk ke halaman Akun Saya",
            "match": {
              "location": "Registration.user_berhasil_masuk_ke_halaman_Akun_Saya()"
            },
            "keyword": "Then ",
            "BDD_STEP_UUID": "cb476c88-f7f2-4643-ac80-bc89f30020e9"
          }
        ]
      }
    ],
    "name": "Registration",
    "description": "",
    "id": "registration",
    "keyword": "Feature",
    "uri": "C:/Users/nandi/Katalon Studio/platinum-challenge-kelompok-3-final/Secondhand-App/Include/features/Registration.feature",
    "tags": []
  }
]