[
  {
    "line": 1,
    "elements": [
      {
        "line": 4,
        "name": "User melakukan tambah produk dengan mengisi semua input field yang dibutuhkan dengan valid",
        "description": "",
        "id": "sellproduct;user-melakukan-tambah-produk-dengan-mengisi-semua-input-field-yang-dibutuhkan-dengan-valid",
        "type": "scenario",
        "keyword": "Scenario",
        "steps": [
          {
            "result": {
              "duration": 1947199800,
              "status": "passed"
            },
            "line": 5,
            "name": "User klik button Akun",
            "match": {
              "location": "Registration.user_klik_button_Akun()"
            },
            "keyword": "When "
          },
          {
            "result": {
              "duration": 818201500,
              "status": "passed"
            },
            "line": 6,
            "name": "User klik button +",
            "match": {
              "location": "SellProduct.user_klik_button()"
            },
            "keyword": "Then "
          },
          {
            "result": {
              "duration": 1898706200,
              "status": "passed"
            },
            "line": 7,
            "name": "User mengisi field nama produk dengan \"Patung Motor\"",
            "match": {
              "arguments": [
                {
                  "val": "\"Patung Motor\"",
                  "offset": 38
                }
              ],
              "location": "SellProduct.user_mengisi_field_nama_produk_dengan(String)"
            },
            "keyword": "Then "
          },
          {
            "result": {
              "duration": 1127898600,
              "status": "passed"
            },
            "line": 8,
            "name": "User mengisi field harga produk dengan \"150000\"",
            "match": {
              "arguments": [
                {
                  "val": "\"150000\"",
                  "offset": 39
                }
              ],
              "location": "SellProduct.user_mengisi_field_harga_produk_dengan(String)"
            },
            "keyword": "Then "
          },
          {
            "result": {
              "duration": 1170963200,
              "status": "passed"
            },
            "line": 9,
            "name": "User klik field Pilih Kategori",
            "match": {
              "location": "SellProduct.user_klik_field_Pilih_Kategori()"
            },
            "keyword": "Then "
          },
          {
            "result": {
              "duration": 1551739900,
              "status": "passed"
            },
            "line": 10,
            "name": "User memilih kategori Elektronik",
            "match": {
              "location": "SellProduct.user_memilih_kategori_Elektronik()"
            },
            "keyword": "Then "
          },
          {
            "result": {
              "duration": 1250987000,
              "status": "passed"
            },
            "line": 11,
            "name": "User mengisi field lokasi",
            "match": {
              "location": "SellProduct.user_mengisi_field_lokasi()"
            },
            "keyword": "Then "
          },
          {
            "result": {
              "duration": 1617531200,
              "status": "passed"
            },
            "line": 12,
            "name": "User mengisi field deskripsi",
            "match": {
              "location": "SellProduct.user_mengisi_field_deskripsi()"
            },
            "keyword": "Then "
          },
          {
            "result": {
              "duration": 628944200,
              "status": "passed"
            },
            "line": 13,
            "name": "User klik button upload foto produk",
            "match": {
              "location": "SellProduct.user_klik_button_upload_foto_produk()"
            },
            "keyword": "Then "
          },
          {
            "result": {
              "duration": 661931700,
              "status": "passed"
            },
            "line": 14,
            "name": "User klik Galeri",
            "match": {
              "location": "SellProduct.user_klik_Galeri()"
            },
            "keyword": "Then "
          },
          {
            "result": {
              "duration": 2080647400,
              "status": "passed"
            },
            "line": 15,
            "name": "User memilih foto dari galeri",
            "match": {
              "location": "SellProduct.user_memilih_foto_dari_galeri()"
            },
            "keyword": "Then "
          },
          {
            "result": {
              "duration": 1438984300,
              "status": "passed"
            },
            "line": 16,
            "name": "User klik button Terbitkan",
            "match": {
              "location": "SellProduct.user_klik_button_Terbitkan()"
            },
            "keyword": "Then "
          },
          {
            "result": {
              "duration": 3086034500,
              "status": "passed"
            },
            "line": 17,
            "name": "Delay 3 detik",
            "match": {
              "arguments": [
                {
                  "val": "3",
                  "offset": 6
                }
              ],
              "location": "Registration.delay_detik(Integer)"
            },
            "keyword": "Given "
          },
          {
            "result": {
              "duration": 2557679800,
              "status": "passed"
            },
            "line": 18,
            "name": "User melihat informasi produk berhasil diterbitkan",
            "match": {
              "location": "SellProduct.user_melihat_informasi_produk_berhasil_diterbitkan()"
            },
            "keyword": "Then "
          }
        ]
      }
    ],
    "name": "SellProduct",
    "description": "\tSebagai User, saya ingin menambah produk jualan saya pada aplikasi Second Hand Store",
    "id": "sellproduct",
    "keyword": "Feature",
    "uri": "C:/Users/nandi/Katalon Studio/platinum-challenge-kelompok-3-final/Secondhand-App/Include/features/SellProduct.feature",
    "tags": []
  }
]